{
	"info": {
		"_postman_id": "2ee26c84-cece-457b-8652-922bc36b1949",
		"name": "auth",
		"schema": "https://schema.getpostman.com/json/collection/v2.1.0/collection.json",
		"_exporter_id": "9212318"
	},
	"item": [
		{
			"name": "Firewall api",
			"item": [
				{
					"name": "Protected resource",
					"item": [
						{
							"name": "With no auth",
							"event": [
								{
									"listen": "test",
									"script": {
										"exec": [
											"pm.test(\"Status code is 401\", function () {\r",
											"    pm.response.to.have.status(401);\r",
											"});\r",
											"\r",
											"pm.test('Response is unauthorized', function () {\r",
											"    pm.expect(pm.response.json().errors.message).to.eql('Full authentication is required to access this resource.');\r",
											"});"
										],
										"type": "text/javascript"
									}
								}
							],
							"protocolProfileBehavior": {
								"disableCookies": true,
								"followRedirects": false
							},
							"request": {
								"method": "GET",
								"header": [],
								"url": {
									"raw": "{{Host}}/api/admin/users",
									"host": [
										"{{Host}}"
									],
									"path": [
										"api",
										"admin",
										"users"
									]
								}
							},
							"response": []
						},
						{
							"name": "With basic auth",
							"event": [
								{
									"listen": "test",
									"script": {
										"exec": [
											"pm.test(\"Status code is 200\", function () {\r",
											"    pm.response.to.have.status(200);\r",
											"});\r",
											"\r",
											"pm.test(\"Users are returned\", function () {\r",
											"    const first_user = pm.response.json()['data'][0];\r",
											"    \r",
											"    pm.expect(first_user.type).to.eql('user');\r",
											"});"
										],
										"type": "text/javascript"
									}
								}
							],
							"protocolProfileBehavior": {
								"disableCookies": true
							},
							"request": {
								"method": "GET",
								"header": [
									{
										"key": "Authorization",
										"value": "Basic {{Basic}}",
										"type": "text"
									}
								],
								"url": {
									"raw": "{{Host}}/api/admin/users",
									"host": [
										"{{Host}}"
									],
									"path": [
										"api",
										"admin",
										"users"
									]
								}
							},
							"response": []
						},
						{
							"name": "With session auth",
							"event": [
								{
									"listen": "test",
									"script": {
										"exec": [
											"pm.test(\"Status code is 200\", function () {\r",
											"    pm.response.to.have.status(200);\r",
											"});"
										],
										"type": "text/javascript"
									}
								},
								{
									"listen": "prerequest",
									"script": {
										"exec": [
											"const login_url = pm.variables.get('Host') + '/gui/login';",
											"",
											"pm.sendRequest({\"url\": login_url, \"method\": \"GET\"}, function (err, res) {",
											"    const content = res.text();",
											"    const re = /\\:vue\\-tokens\\=\\'\\{\\\"login\\\"\\:\\\"([^\\\"]+)\"}/;",
											"",
											"    const csrf_token = content.match(re);",
											"",
											"    const [login, password] = atob(pm.variables.get('Basic')).split(':');",
											"",
											"    const options = {",
											"        url: login_url,",
											"        method: \"POST\",",
											"        header: {",
											"            \"Content-Type\": \"application/x-www-form-urlencoded\"",
											"        },",
											"        body: {",
											"            mode: \"urlencoded\",",
											"            urlencoded: [",
											"                {\"key\": \"username\", \"value\": login},",
											"                {\"key\": \"password\", \"value\": password},",
											"                {\"key\": \"token\", \"value\": csrf_token}",
											"            ]",
											"",
											"        }",
											"    };",
											"",
											"    pm.sendRequest(options, function (err, res, {cookies}) {",
											"        pm.collectionVariables.set('api_protected_session', cookies.one(pm.variables.get('Instance_name')).value);",
											"    });",
											"});",
											""
										],
										"type": "text/javascript"
									}
								}
							],
							"protocolProfileBehavior": {
								"followRedirects": false,
								"disableCookies": true
							},
							"request": {
								"method": "GET",
								"header": [
									{
										"key": "Cookie",
										"value": "{{Instance_name}}={{api_protected_session}}",
										"type": "text"
									}
								],
								"url": {
									"raw": "{{Host}}/api/admin/users",
									"host": [
										"{{Host}}"
									],
									"path": [
										"api",
										"admin",
										"users"
									]
								}
							},
							"response": []
						},
						{
							"name": "With token auth",
							"event": [
								{
									"listen": "test",
									"script": {
										"exec": [
											"pm.test(\"Status code is 200\", function () {\r",
											"    pm.response.to.have.status(200);\r",
											"});"
										],
										"type": "text/javascript"
									}
								}
							],
							"protocolProfileBehavior": {
								"followRedirects": false,
								"disableCookies": true
							},
							"request": {
								"auth": {
									"type": "apikey",
									"apikey": [
										{
											"key": "value",
											"value": "{{auth_token}}",
											"type": "string"
										},
										{
											"key": "key",
											"value": "X-OXAPI-KEY",
											"type": "string"
										}
									]
								},
								"method": "GET",
								"header": [],
								"url": {
									"raw": "{{Host}}/api/admin/users",
									"host": [
										"{{Host}}"
									],
									"path": [
										"api",
										"admin",
										"users"
									]
								}
							},
							"response": []
						}
					]
				},
				{
					"name": "Public resource",
					"item": [
						{
							"name": "With no auth",
							"event": [
								{
									"listen": "test",
									"script": {
										"exec": [
											"pm.test(\"Status code is 200\", function () {\r",
											"    pm.response.to.have.status(200);\r",
											"});\r",
											"\r",
											"pm.test('Response is valid', function () {\r",
											"    pm.expect(pm.response.json().data.type).to.eql('api_status');\r",
											"});"
										],
										"type": "text/javascript"
									}
								}
							],
							"protocolProfileBehavior": {
								"disableCookies": true,
								"followRedirects": false
							},
							"request": {
								"method": "GET",
								"header": [],
								"url": {
									"raw": "{{Host}}/api/status",
									"host": [
										"{{Host}}"
									],
									"path": [
										"api",
										"status"
									]
								}
							},
							"response": []
						},
						{
							"name": "With basic auth",
							"event": [
								{
									"listen": "test",
									"script": {
										"exec": [
											"pm.test(\"Status code is 200\", function () {\r",
											"    pm.response.to.have.status(200);\r",
											"});\r",
											"\r",
											"pm.test('Response is valid', function () {\r",
											"    pm.expect(pm.response.json().data.type).to.eql('api_status');\r",
											"});"
										],
										"type": "text/javascript"
									}
								}
							],
							"protocolProfileBehavior": {
								"disableCookies": true,
								"followRedirects": false
							},
							"request": {
								"method": "GET",
								"header": [
									{
										"key": "Authorization",
										"value": "Basic {{Basic}}",
										"type": "text"
									}
								],
								"url": {
									"raw": "{{Host}}/api/status",
									"host": [
										"{{Host}}"
									],
									"path": [
										"api",
										"status"
									]
								}
							},
							"response": []
						},
						{
							"name": "With session auth",
							"event": [
								{
									"listen": "test",
									"script": {
										"exec": [
											"pm.test(\"Status code is 200\", function () {\r",
											"    pm.response.to.have.status(200);\r",
											"});"
										],
										"type": "text/javascript"
									}
								}
							],
							"protocolProfileBehavior": {
								"followRedirects": false,
								"disableCookies": true
							},
							"request": {
								"method": "GET",
								"header": [
									{
										"key": "Cookie",
										"value": "{{Instance_name}}={{auth_cookie}}",
										"type": "text"
									}
								],
								"url": {
									"raw": "{{Host}}/api/status",
									"host": [
										"{{Host}}"
									],
									"path": [
										"api",
										"status"
									]
								}
							},
							"response": []
						},
						{
							"name": "With token auth",
							"event": [
								{
									"listen": "test",
									"script": {
										"exec": [
											"pm.test(\"Status code is 200\", function () {\r",
											"    pm.response.to.have.status(200);\r",
											"});"
										],
										"type": "text/javascript"
									}
								}
							],
							"protocolProfileBehavior": {
								"followRedirects": false,
								"disableCookies": true
							},
							"request": {
								"auth": {
									"type": "apikey",
									"apikey": [
										{
											"key": "value",
											"value": "{{auth_token}}",
											"type": "string"
										},
										{
											"key": "key",
											"value": "X-OXAPI-KEY",
											"type": "string"
										}
									]
								},
								"method": "GET",
								"header": [],
								"url": {
									"raw": "{{Host}}/api/status",
									"host": [
										"{{Host}}"
									],
									"path": [
										"api",
										"status"
									]
								}
							},
							"response": []
						}
					]
				},
				{
					"name": "Auth cookie",
					"item": [
						{
							"name": "No cookie auth basic",
							"event": [
								{
									"listen": "test",
									"script": {
										"exec": [
											"pm.test(\"Status code is 200\", function () {\r",
											"    pm.response.to.have.status(200);\r",
											"});\r",
											"\r",
											"pm.test(\"Auth cookie is not send\", function () {\r",
											"    const instance_name = pm.variables.get('Instance_name');\r",
											"    var no_session_cookie = true;\r",
											"    pm.response.headers.each(function (header) {\r",
											"        if(header.key == 'Set-Cookie' && header.value.includes(instance_name)) {\r",
											"            no_session_cookie = false;\r",
											"        }\r",
											"    });\r",
											"\r",
											"    pm.expect(no_session_cookie).to.be.true;\r",
											"});"
										],
										"type": "text/javascript"
									}
								},
								{
									"listen": "prerequest",
									"script": {
										"exec": [
											""
										],
										"type": "text/javascript"
									}
								}
							],
							"protocolProfileBehavior": {
								"followRedirects": false,
								"disableCookies": true
							},
							"request": {
								"method": "GET",
								"header": [
									{
										"key": "Authorization",
										"value": "Basic {{Basic}}",
										"type": "text"
									}
								],
								"url": {
									"raw": "{{Host}}/api/admin/users",
									"host": [
										"{{Host}}"
									],
									"path": [
										"api",
										"admin",
										"users"
									]
								}
							},
							"response": []
						},
						{
							"name": "No cookie public no auth",
							"event": [
								{
									"listen": "test",
									"script": {
										"exec": [
											"pm.test(\"Status code is 200\", function () {\r",
											"    pm.response.to.have.status(200);\r",
											"});\r",
											"\r",
											"pm.test(\"Auth cookie is not send\", function () {\r",
											"    const instance_name = pm.variables.get('Instance_name');\r",
											"    var no_session_cookie = true;\r",
											"    pm.response.headers.each(function (header) {\r",
											"        if(header.key == 'Set-Cookie' && header.value.includes(instance_name)) {\r",
											"            no_session_cookie = false;\r",
											"        }\r",
											"    });\r",
											"\r",
											"    pm.expect(no_session_cookie).to.be.true;\r",
											"});"
										],
										"type": "text/javascript"
									}
								}
							],
							"protocolProfileBehavior": {
								"followRedirects": false,
								"disableCookies": true
							},
							"request": {
								"method": "GET",
								"header": [],
								"url": {
									"raw": "{{Host}}/api/status",
									"host": [
										"{{Host}}"
									],
									"path": [
										"api",
										"status"
									]
								}
							},
							"response": []
						},
						{
							"name": "No cookie auth session",
							"event": [
								{
									"listen": "test",
									"script": {
										"exec": [
											"pm.test(\"Status code is 200\", function () {\r",
											"    pm.response.to.have.status(200);\r",
											"});\r",
											""
										],
										"type": "text/javascript"
									}
								}
							],
							"protocolProfileBehavior": {
								"disableCookies": true,
								"followRedirects": false
							},
							"request": {
								"method": "GET",
								"header": [
									{
										"key": "Cookie",
										"value": "{{Instance_name}}={{auth_cookie}}",
										"type": "text"
									}
								],
								"url": {
									"raw": "{{Host}}/api/admin/users",
									"host": [
										"{{Host}}"
									],
									"path": [
										"api",
										"admin",
										"users"
									]
								}
							},
							"response": []
						},
						{
							"name": "No cookie auth token",
							"event": [
								{
									"listen": "test",
									"script": {
										"exec": [
											"pm.test(\"Status code is 200\", function () {\r",
											"    pm.response.to.have.status(200);\r",
											"});\r",
											"\r",
											"pm.test(\"Auth cookie is not send\", function () {\r",
											"    const instance_name = pm.variables.get('Instance_name');\r",
											"    var no_session_cookie = true;\r",
											"    pm.response.headers.each(function (header) {\r",
											"        if(header.key == 'Set-Cookie' && header.value.includes(instance_name)) {\r",
											"            no_session_cookie = false;\r",
											"        }\r",
											"    });\r",
											"\r",
											"    pm.expect(no_session_cookie).to.be.true;\r",
											"});"
										],
										"type": "text/javascript"
									}
								}
							],
							"protocolProfileBehavior": {
								"disableCookies": true,
								"followRedirects": false
							},
							"request": {
								"auth": {
									"type": "apikey",
									"apikey": [
										{
											"key": "value",
											"value": "{{auth_token}}",
											"type": "string"
										},
										{
											"key": "key",
											"value": "X-OXAPI-KEY",
											"type": "string"
										}
									]
								},
								"method": "GET",
								"header": [],
								"url": {
									"raw": "{{Host}}/api/admin/users",
									"host": [
										"{{Host}}"
									],
									"path": [
										"api",
										"admin",
										"users"
									]
								}
							},
							"response": []
						}
					],
					"event": [
						{
							"listen": "prerequest",
							"script": {
								"type": "text/javascript",
								"exec": [
									"if (!pm.collectionVariables.get('folder_cookie')) {",
									"    const login_url = pm.variables.get('Host') + '/gui/login';",
									"",
									"    pm.sendRequest({\"url\": login_url, \"method\": \"GET\"}, function (err, res) {",
									"        const content = res.text();",
									"        const re = /\\:vue\\-tokens\\=\\'\\{\\\"login\\\"\\:\\\"([^\\\"]+)\"}/;",
									"",
									"        const csrf_token = content.match(re);",
									"",
									"        const [login, password] = atob(pm.variables.get('Basic')).split(':');",
									"",
									"        const options = {",
									"            url: login_url,",
									"            method: \"POST\",",
									"            header: {",
									"                \"Content-Type\": \"application/x-www-form-urlencoded\"",
									"            },",
									"            body: {",
									"                mode: \"urlencoded\",",
									"                urlencoded: [",
									"                    {\"key\": \"username\", \"value\": login},",
									"                    {\"key\": \"password\", \"value\": password},",
									"                    {\"key\": \"token\", \"value\": csrf_token}",
									"                ]",
									"",
									"            }",
									"        };",
									"",
									"        pm.sendRequest(options, function (err, res, {cookies}) {",
									"            pm.collectionVariables.set('auth_cookie', cookies.one(pm.variables.get('Instance_name')).value);",
									"        });",
									"    });",
									"",
									"    pm.collectionVariables.set('folder_cookie', true)",
									"}"
								]
							}
						},
						{
							"listen": "test",
							"script": {
								"type": "text/javascript",
								"exec": [
									""
								]
							}
						}
					]
				}
			]
		},
		{
			"name": "Firewall cpx",
			"item": [
				{
					"name": "Protected resource with no cpx args",
					"event": [
						{
							"listen": "test",
							"script": {
								"exec": [
									"pm.test(\"Status code is 302\", function () {\r",
									"    pm.response.to.have.status(302);\r",
									"});\r",
									"\r",
									"pm.test(\"Response contains Location header\", function () {\r",
									"    pm.expect(pm.response.headers.get('Location')).to.contains('/gui/login');\r",
									"});"
								],
								"type": "text/javascript"
							}
						}
					],
					"protocolProfileBehavior": {
						"followRedirects": false,
						"disableCookies": true
					},
					"request": {
						"method": "POST",
						"header": [],
						"body": {
							"mode": "urlencoded",
							"urlencoded": [
								{
									"key": "token",
									"value": "dummy_token",
									"type": "text"
								}
							]
						},
						"url": {
							"raw": "{{Host}}/gui/cpx/login",
							"host": [
								"{{Host}}"
							],
							"path": [
								"gui",
								"cpx",
								"login"
							]
						}
					},
					"response": []
				},
				{
					"name": "Already login try to auth",
					"event": [
						{
							"listen": "test",
							"script": {
								"exec": [
									"pm.test(\"Status code is 302\", function () {\r",
									"    pm.response.to.have.status(302);\r",
									"});\r",
									"\r",
									"pm.test(\"Response contains Location header\", function () {\r",
									"    pm.expect(pm.response.headers.get('Location')).to.not.contains('/gui/login');\r",
									"});"
								],
								"type": "text/javascript"
							}
						}
					],
					"protocolProfileBehavior": {
						"followRedirects": false,
						"disableCookies": true
					},
					"request": {
						"method": "POST",
						"header": [
							{
								"key": "Cookie",
								"value": "{{Instance_name}}={{auth_cookie}}",
								"type": "text"
							}
						],
						"body": {
							"mode": "urlencoded",
							"urlencoded": [
								{
									"key": "token",
									"value": "dummy_token",
									"type": "text"
								}
							]
						},
						"url": {
							"raw": "{{Host}}/gui/cpx/login",
							"host": [
								"{{Host}}"
							],
							"path": [
								"gui",
								"cpx",
								"login"
							]
						}
					},
					"response": []
				}
			],
			"event": [
				{
					"listen": "prerequest",
					"script": {
						"type": "text/javascript",
						"exec": [
							"if (!pm.collectionVariables.get('folder_cpx')) {",
							"    const login_url = pm.variables.get('Host') + '/gui/login';",
							"",
							"    pm.sendRequest({\"url\": login_url, \"method\": \"GET\"}, function (err, res) {",
							"        const content = res.text();",
							"        const re = /\\:vue\\-tokens\\=\\'\\{\\\"login\\\"\\:\\\"([^\\\"]+)\"}/;",
							"",
							"        const csrf_token = content.match(re);",
							"",
							"        const [login, password] = atob(pm.variables.get('Basic')).split(':');",
							"",
							"        const options = {",
							"            url: login_url,",
							"            method: \"POST\",",
							"            header: {",
							"                \"Content-Type\": \"application/x-www-form-urlencoded\"",
							"            },",
							"            body: {",
							"                mode: \"urlencoded\",",
							"                urlencoded: [",
							"                    {\"key\": \"username\", \"value\": login},",
							"                    {\"key\": \"password\", \"value\": password},",
							"                    {\"key\": \"token\", \"value\": csrf_token}",
							"                ]",
							"",
							"            }",
							"        };",
							"",
							"        pm.sendRequest(options, function (err, res, {cookies}) {",
							"            pm.collectionVariables.set('auth_cookie', cookies.one(pm.variables.get('Instance_name')).value);",
							"        });",
							"    });",
							"",
							"    pm.collectionVariables.set('folder_cpx', true)",
							"}"
						]
					}
				},
				{
					"listen": "test",
					"script": {
						"type": "text/javascript",
						"exec": [
							""
						]
					}
				}
			]
		},
		{
			"name": "Firewall dev",
			"item": [
				{
					"name": "Without auth",
					"event": [
						{
							"listen": "test",
							"script": {
								"exec": [
									"pm.test(\"Status code is 200\", function () {\r",
									"    pm.response.to.have.status(200);\r",
									"});\r",
									"\r",
									"pm.test(\"The picture is returned\", function () {\r",
									"    pm.expect(pm.response.headers.get('Content-Type')).to.eql('image/png');\r",
									"});"
								],
								"type": "text/javascript"
							}
						}
					],
					"protocolProfileBehavior": {
						"disableCookies": true
					},
					"request": {
						"method": "GET",
						"header": [],
						"url": {
							"raw": "{{Host}}/images/pictures/identity.png",
							"host": [
								"{{Host}}"
							],
							"path": [
								"images",
								"pictures",
								"identity.png"
							]
						}
					},
					"response": []
				},
				{
					"name": "With auth",
					"event": [
						{
							"listen": "test",
							"script": {
								"exec": [
									"pm.test(\"Status code is 200\", function () {\r",
									"    pm.response.to.have.status(200);\r",
									"});\r",
									"\r",
									"pm.test(\"The picture is returned\", function () {\r",
									"    pm.expect(pm.response.headers.get('Content-Type')).to.eql('image/png');\r",
									"});"
								],
								"type": "text/javascript"
							}
						}
					],
					"protocolProfileBehavior": {
						"disableCookies": true
					},
					"request": {
						"method": "GET",
						"header": [
							{
								"key": "Authorization",
								"value": "Basic {{Basic}}",
								"type": "text"
							}
						],
						"url": {
							"raw": "{{Host}}/images/pictures/identity.png",
							"host": [
								"{{Host}}"
							],
							"path": [
								"images",
								"pictures",
								"identity.png"
							]
						}
					},
					"response": []
				}
			]
		},
		{
			"name": "Firewall fc",
			"item": [
				{
					"name": "Public resource with no auth",
					"event": [
						{
							"listen": "test",
							"script": {
								"exec": [
									"pm.test(\"Status code is 302\", function () {\r",
									"    pm.response.to.have.status(302);\r",
									"});"
								],
								"type": "text/javascript"
							}
						}
					],
					"protocolProfileBehavior": {
						"followRedirects": false,
						"disableCookies": true
					},
					"request": {
						"method": "GET",
						"header": [],
						"url": {
							"raw": "{{Host}}/gui/oauth2/fc/login",
							"host": [
								"{{Host}}"
							],
							"path": [
								"gui",
								"oauth2",
								"fc",
								"login"
							]
						}
					},
					"response": []
				},
				{
					"name": "Protected resource with no auth",
					"event": [
						{
							"listen": "test",
							"script": {
								"exec": [
									"pm.test(\"Status code is 302\", function () {\r",
									"    pm.response.to.have.status(302);\r",
									"});\r",
									"\r",
									"pm.test(\"Response headers contains Location\", function () {\r",
									"    pm.expect(pm.response.headers.get('Location')).to.contains('/gui/login')\r",
									"});"
								],
								"type": "text/javascript"
							}
						}
					],
					"protocolProfileBehavior": {
						"followRedirects": false,
						"disableCookies": true
					},
					"request": {
						"method": "GET",
						"header": [],
						"url": {
							"raw": "{{Host}}/gui/oauth2/fc/callback",
							"host": [
								"{{Host}}"
							],
							"path": [
								"gui",
								"oauth2",
								"fc",
								"callback"
							]
						}
					},
					"response": []
				}
			]
		},
		{
			"name": "Firewall gui",
			"item": [
				{
					"name": "Protected resource",
					"item": [
						{
							"name": "Without auth",
							"event": [
								{
									"listen": "test",
									"script": {
										"exec": [
											"pm.test(\"Status code is 302\", function () {\r",
											"    pm.response.to.have.status(302);\r",
											"});\r",
											"\r",
											"pm.test(\"Response headers contains Location\", function () {\r",
											"    pm.expect(pm.response.headers.get('Location')).to.contains('/gui/login')\r",
											"});"
										],
										"type": "text/javascript"
									}
								}
							],
							"protocolProfileBehavior": {
								"followRedirects": false,
								"disableCookies": true
							},
							"request": {
								"method": "GET",
								"header": [],
								"url": {
									"raw": "{{Host}}/gui/system/about",
									"host": [
										"{{Host}}"
									],
									"path": [
										"gui",
										"system",
										"about"
									]
								}
							},
							"response": []
						},
						{
							"name": "With basic auth",
							"event": [
								{
									"listen": "test",
									"script": {
										"exec": [
											"pm.test(\"Status code is 200\", function () {\r",
											"    pm.response.to.have.status(200);\r",
											"});"
										],
										"type": "text/javascript"
									}
								}
							],
							"protocolProfileBehavior": {
								"disableCookies": true
							},
							"request": {
								"method": "GET",
								"header": [
									{
										"key": "Authorization",
										"value": "Basic {{Basic}}",
										"type": "text"
									}
								],
								"url": {
									"raw": "{{Host}}/gui/system/about",
									"host": [
										"{{Host}}"
									],
									"path": [
										"gui",
										"system",
										"about"
									]
								}
							},
							"response": []
						},
						{
							"name": "With session auth",
							"event": [
								{
									"listen": "test",
									"script": {
										"exec": [
											"pm.test(\"Status code is 200\", function () {\r",
											"    pm.response.to.have.status(200);\r",
											"});"
										],
										"type": "text/javascript"
									}
								}
							],
							"protocolProfileBehavior": {
								"followRedirects": false
							},
							"request": {
								"method": "GET",
								"header": [
									{
										"key": "Cookie",
										"value": "{{Instance_name}}={{auth_cookie}}",
										"type": "text"
									}
								],
								"url": {
									"raw": "{{Host}}/gui/system/about",
									"host": [
										"{{Host}}"
									],
									"path": [
										"gui",
										"system",
										"about"
									]
								}
							},
							"response": []
						}
					]
				},
				{
					"name": "Public resource",
					"item": [
						{
							"name": "Without auth",
							"event": [
								{
									"listen": "test",
									"script": {
										"exec": [
											"pm.test(\"Status code is 200\", function () {\r",
											"    pm.response.to.have.status(200);\r",
											"});"
										],
										"type": "text/javascript"
									}
								}
							],
							"protocolProfileBehavior": {
								"followRedirects": false,
								"disableCookies": true
							},
							"request": {
								"method": "GET",
								"header": [],
								"url": {
									"raw": "{{Host}}/gui/login",
									"host": [
										"{{Host}}"
									],
									"path": [
										"gui",
										"login"
									]
								}
							},
							"response": []
						}
					]
				},
				{
					"name": "Login page",
					"item": [
						{
							"name": "Already auth",
							"event": [
								{
									"listen": "test",
									"script": {
										"exec": [
											"pm.test(\"Status code is 302\", function () {\r",
											"    pm.response.to.have.status(302);\r",
											"});\r",
											"\r",
											"pm.test(\"Location redirect to the redirect_uri param\", function () {\r",
											"    pm.expect(pm.response.headers.get('Location')).to.not.be.empty;\r",
											"});"
										],
										"type": "text/javascript"
									}
								},
								{
									"listen": "prerequest",
									"script": {
										"exec": [
											""
										],
										"type": "text/javascript"
									}
								}
							],
							"protocolProfileBehavior": {
								"disableBodyPruning": true,
								"disableCookies": true,
								"followRedirects": false
							},
							"request": {
								"auth": {
									"type": "noauth"
								},
								"method": "GET",
								"header": [
									{
										"key": "Cookie",
										"value": "{{Instance_name}}={{auth_cookie}}",
										"type": "text"
									}
								],
								"body": {
									"mode": "urlencoded",
									"urlencoded": []
								},
								"url": {
									"raw": "{{Host}}/gui/login",
									"host": [
										"{{Host}}"
									],
									"path": [
										"gui",
										"login"
									]
								}
							},
							"response": []
						},
						{
							"name": "Already auth",
							"event": [
								{
									"listen": "test",
									"script": {
										"exec": [
											"pm.test(\"Status code is 302\", function () {\r",
											"    pm.response.to.have.status(302);\r",
											"});"
										],
										"type": "text/javascript"
									}
								},
								{
									"listen": "prerequest",
									"script": {
										"exec": [
											""
										],
										"type": "text/javascript"
									}
								}
							],
							"protocolProfileBehavior": {
								"disableCookies": true,
								"followRedirects": false
							},
							"request": {
								"auth": {
									"type": "noauth"
								},
								"method": "POST",
								"header": [
									{
										"key": "Cookie",
										"value": "{{Instance_name}}={{auth_cookie}}",
										"type": "text"
									}
								],
								"body": {
									"mode": "urlencoded",
									"urlencoded": [
										{
											"key": "token",
											"value": "dummy_token",
											"type": "text"
										}
									]
								},
								"url": {
									"raw": "{{Host}}/gui/login",
									"host": [
										"{{Host}}"
									],
									"path": [
										"gui",
										"login"
									]
								}
							},
							"response": []
						},
						{
							"name": "Login with no CSRF token",
							"event": [
								{
									"listen": "test",
									"script": {
										"exec": [
											"pm.test(\"Status code is 403\", function () {\r",
											"    pm.response.to.have.status(403);\r",
											"});"
										],
										"type": "text/javascript"
									}
								}
							],
							"protocolProfileBehavior": {
								"followRedirects": false,
								"disableCookies": true
							},
							"request": {
								"method": "POST",
								"header": [],
								"body": {
									"mode": "urlencoded",
									"urlencoded": [
										{
											"key": "username",
											"value": "{{Auth_Username}}",
											"type": "text"
										},
										{
											"key": "password",
											"value": "{{Auth_Password}}",
											"type": "text"
										}
									]
								},
								"url": {
									"raw": "{{Host}}/gui/login",
									"host": [
										"{{Host}}"
									],
									"path": [
										"gui",
										"login"
									]
								}
							},
							"response": []
						}
					]
				}
			]
		},
		{
			"name": "Firewall krb",
			"item": [
				{
					"name": "Protected resource without auth",
					"event": [
						{
							"listen": "test",
							"script": {
								"exec": [
									"pm.test(\"Status code is 302\", function () {\r",
									"    pm.response.to.have.status(302);\r",
									"});\r",
									"\r",
									"pm.test(\"Location containts /gui/login\", function () {\r",
									"    pm.expect(pm.response.headers.get('Location')).to.contains('/gui/login');\r",
									"});"
								],
								"type": "text/javascript"
							}
						}
					],
					"protocolProfileBehavior": {
						"followRedirects": false,
						"disableCookies": true
					},
					"request": {
						"auth": {
							"type": "noauth"
						},
						"method": "POST",
						"header": [],
						"body": {
							"mode": "urlencoded",
							"urlencoded": [
								{
									"key": "token",
									"value": "dummy_token",
									"type": "text"
								}
							]
						},
						"url": {
							"raw": "{{Host}}/gui/krb/login",
							"host": [
								"{{Host}}"
							],
							"path": [
								"gui",
								"krb",
								"login"
							]
						}
					},
					"response": []
				},
				{
					"name": "Already login try to auth",
					"event": [
						{
							"listen": "test",
							"script": {
								"exec": [
									"pm.test(\"Status code is 302\", function () {\r",
									"    pm.response.to.have.status(302);\r",
									"});\r",
									""
								],
								"type": "text/javascript"
							}
						}
					],
					"protocolProfileBehavior": {
						"followRedirects": false,
						"disableCookies": true
					},
					"request": {
						"auth": {
							"type": "noauth"
						},
						"method": "POST",
						"header": [
							{
								"key": "Cookie",
								"value": "{{Instance_name}}={{auth_cookie}}",
								"type": "text"
							}
						],
						"body": {
							"mode": "urlencoded",
							"urlencoded": [
								{
									"key": "redirect_uri",
									"value": "/gui/system/about",
									"type": "text"
								},
								{
									"key": "token",
									"value": "dummy_token",
									"type": "text"
								}
							]
						},
						"url": {
							"raw": "{{Host}}/gui/krb/login",
							"host": [
								"{{Host}}"
							],
							"path": [
								"gui",
								"krb",
								"login"
							]
						}
					},
					"response": []
				}
			]
		},
		{
			"name": "Firewall pcs",
			"item": [
				{
					"name": "Protected resource without auth",
					"event": [
						{
							"listen": "test",
							"script": {
								"exec": [
									"pm.test(\"Status code is 302\", function () {\r",
									"    pm.response.to.have.status(302);\r",
									"});\r",
									"\r",
									"pm.test(\"Response contains Location header\", function () {\r",
									"    pm.expect(pm.response.headers.get('Location')).to.contains('/gui/login');\r",
									"});"
								],
								"type": "text/javascript"
							}
						}
					],
					"protocolProfileBehavior": {
						"followRedirects": false,
						"disableCookies": true
					},
					"request": {
						"method": "GET",
						"header": [],
						"url": {
							"raw": "{{Host}}/gui/oauth2/fc/callback",
							"host": [
								"{{Host}}"
							],
							"path": [
								"gui",
								"oauth2",
								"fc",
								"callback"
							]
						}
					},
					"response": []
				},
				{
					"name": "Login page already auth",
					"event": [
						{
							"listen": "test",
							"script": {
								"exec": [
									"pm.test(\"Status code is 302\", function () {\r",
									"    pm.response.to.have.status(302);\r",
									"});\r",
									""
								],
								"type": "text/javascript"
							}
						}
					],
					"protocolProfileBehavior": {
						"followRedirects": false,
						"disableCookies": true
					},
					"request": {
						"method": "GET",
						"header": [
							{
								"key": "Cookie",
								"value": "{{Instance_name}}={{auth_cookie}}",
								"type": "text"
							}
						],
						"url": {
							"raw": "{{Host}}/gui/oauth2/psc/login",
							"host": [
								"{{Host}}"
							],
							"path": [
								"gui",
								"oauth2",
								"psc",
								"login"
							]
						}
					},
					"response": []
				},
				{
					"name": "Callback page already auth",
					"event": [
						{
							"listen": "test",
							"script": {
								"exec": [
									"pm.test(\"Status code is 302\", function () {\r",
									"    pm.response.to.have.status(302);\r",
									"});\r",
									""
								],
								"type": "text/javascript"
							}
						}
					],
					"protocolProfileBehavior": {
						"followRedirects": false,
						"disableCookies": true
					},
					"request": {
						"method": "GET",
						"header": [
							{
								"key": "Cookie",
								"value": "{{Instance_name}}={{auth_cookie}}",
								"type": "text"
							}
						],
						"url": {
							"raw": "{{Host}}/gui/oauth2/fc/callback",
							"host": [
								"{{Host}}"
							],
							"path": [
								"gui",
								"oauth2",
								"fc",
								"callback"
							]
						}
					},
					"response": []
				}
			]
		},
		{
			"name": "Legacy",
			"item": [
				{
					"name": "Protected data without auth",
					"event": [
						{
							"listen": "test",
							"script": {
								"exec": [
									"pm.test(\"Status code is 302\", function () {\r",
									"    pm.response.to.have.status(302);\r",
									"});\r",
									"\r",
									"pm.test('Location header is set with /gui/login', function () {\r",
									"    pm.expect(pm.response.headers.get('Location')).to.contains('/gui/login');\r",
									"})"
								],
								"type": "text/javascript"
							}
						}
					],
					"protocolProfileBehavior": {
						"followRedirects": false,
						"disableCookies": true
					},
					"request": {
						"method": "GET",
						"header": [],
						"url": {
							"raw": "{{Host}}/?m=dPpatients&tab=vw_idx_patients",
							"host": [
								"{{Host}}"
							],
							"path": [
								""
							],
							"query": [
								{
									"key": "m",
									"value": "dPpatients"
								},
								{
									"key": "tab",
									"value": "vw_idx_patients"
								}
							]
						}
					},
					"response": []
				},
				{
					"name": "Public data without auth",
					"event": [
						{
							"listen": "test",
							"script": {
								"exec": [
									"pm.test(\"Status code is 200\", function () {\r",
									"    pm.response.to.have.status(200);\r",
									"});"
								],
								"type": "text/javascript"
							}
						}
					],
					"protocolProfileBehavior": {
						"disableCookies": true
					},
					"request": {
						"method": "GET",
						"header": [],
						"url": {
							"raw": "{{Host}}/status.php",
							"host": [
								"{{Host}}"
							],
							"path": [
								"status.php"
							]
						}
					},
					"response": []
				},
				{
					"name": "Protected resource with login=",
					"event": [
						{
							"listen": "test",
							"script": {
								"exec": [
									"pm.test(\"Status code is 501\", function () {\r",
									"    pm.response.to.have.status(501);\r",
									"});"
								],
								"type": "text/javascript"
							}
						}
					],
					"protocolProfileBehavior": {
						"disableCookies": true
					},
					"request": {
						"method": "GET",
						"header": [],
						"url": {
							"raw": "{{Host}}/?m=dPpatients&tab=vw_idx_patients&login=login:password",
							"host": [
								"{{Host}}"
							],
							"path": [
								""
							],
							"query": [
								{
									"key": "m",
									"value": "dPpatients"
								},
								{
									"key": "tab",
									"value": "vw_idx_patients"
								},
								{
									"key": "login",
									"value": "login:password"
								}
							]
						}
					},
					"response": []
				}
			]
		}
	],
	"event": [
		{
			"listen": "prerequest",
			"script": {
				"type": "text/javascript",
				"exec": [
					"if (!pm.collectionVariables.get('auth_cookie')) {",
					"    const login_url = pm.variables.get('Host') + '/gui/login';",
					"",
					"    pm.sendRequest({\"url\": login_url, \"method\": \"GET\"}, function (err, res) {",
					"        const content = res.text();",
					"        const re = /\\:vue\\-tokens\\=\\'\\{\\\"login\\\"\\:\\\"([^\\\"]+)\"}/;",
					"",
					"        const csrf_token = content.match(re);",
					"",
					"        const [login, password] = atob(pm.variables.get('Basic')).split(':');",
					"",
					"        const options = {",
					"            url: login_url,",
					"            method: \"POST\",",
					"            header: {",
					"                \"Content-Type\": \"application/x-www-form-urlencoded\"",
					"            },",
					"            body: {",
					"                mode: \"urlencoded\",",
					"                urlencoded: [",
					"                    {\"key\": \"username\", \"value\": login},",
					"                    {\"key\": \"password\", \"value\": password},",
					"                    {\"key\": \"token\", \"value\": csrf_token}",
					"                ]",
					"",
					"            }",
					"        };",
					"",
					"        pm.sendRequest(options, function (err, res, {cookies}) {",
					"            pm.collectionVariables.set('auth_cookie', cookies.one(pm.variables.get('Instance_name')).value);",
					"        });",
					"    });",
					"}",
					"",
					"if (!pm.collectionVariables.get('auth_token')) {",
					"    const options = {",
					"        url: pm.variables.get('Host') + '/api/tokens',",
					"        method: \"GET\",",
					"        header: {",
					"            \"Authorization\": \"Basic \" + pm.variables.get('Basic')",
					"        }",
					"    };",
					"",
					"    pm.sendRequest(options, function (err, res) {",
					"        pm.collectionVariables.set('auth_token', res.json().data.attributes.hash);",
					"    });",
					"}",
					""
				]
			}
		},
		{
			"listen": "test",
			"script": {
				"type": "text/javascript",
				"exec": [
					""
				]
			}
		}
	],
	"variable": [
		{
			"key": "api_protected_session",
			"value": ""
		},
		{
			"key": "folder_cookie",
			"value": ""
		},
		{
			"key": "folder_cpx",
			"value": ""
		},
		{
			"key": "auth_token",
			"value": ""
		},
		{
			"key": "auth_cookie",
			"value": ""
		}
	]
}